DJIA Stock Analysis
…
After creating a dataframe, we assign it to a new object, where we summarise monthly returns since 2017-01-01 for each of the stocks and the SPY ETF; min, max, median, mean, SD.

summarise_monthly_returns <- myStocks_returns_monthly %>%
  group_by(symbol) %>%
  summarise(min_return=min(monthly_returns),
            max_return=max(monthly_returns),
            median_return=median(monthly_returns),
            average_return=mean(monthly_returns),
            standard_deviation=STDEV(monthly_returns)) %>% 
  print(summarise_monthly_returns)

## # A tibble: 31 x 6
##    symbol min_return max_return median_return average_return standard_deviation
##    <chr>       <dbl>      <dbl>         <dbl>          <dbl>              <dbl>
##  1 AAPL       -0.577      0.454        0.0352        0.0275              0.116 
##  2 AMGN       -0.170      0.328        0.0104        0.00916             0.0738
##  3 AXP        -0.279      0.875        0.0102        0.00818             0.0918
##  4 BA         -0.458      0.257        0.0179        0.0120              0.0887
##  5 CAT        -0.353      0.350        0.0133        0.0143              0.0908
##  6 CRM        -0.360      0.403        0.0205        0.0276              0.113 
##  7 CSCO       -0.367      0.389        0.0125        0.00495             0.0971
##  8 CVX        -0.224      0.270        0.0122        0.00852             0.0630
##  9 DIS        -0.268      0.234        0.0107        0.00980             0.0725
## 10 DOW        -0.276      0.255        0.0456        0.00898             0.128 
## #  with 21 more rows
…
Statistical Analysis of DJIA Stocks

We now explore the kurtosis and standard deviation for the group, allowing us to compare the risk characteristics of the stocks.

myStocks_returns_monthly %>% 
  group_by(symbol) %>%
  summarise(kurtosis=kurtosis(monthly_returns), standard_deviation=STDEV(monthly_returns)) %>% 
  arrange(desc(standard_deviation))

## # A tibble: 31 x 3
##    symbol kurtosis standard_deviation
##    <chr>     <dbl>              <dbl>
##  1 DOW     -0.0377             0.128 
##  2 AAPL     3.33               0.116 
##  3 CRM      1.11               0.113 
##  4 CSCO     2.22               0.0971
##  5 INTC     2.54               0.0967
##  6 GS       0.866              0.0924
##  7 AXP     31.5                0.0918
##  8 CAT      1.88               0.0908
##  9 BA       3.45               0.0887
## 10 JPM      1.12               0.0876
## #  with 21 more rows
…
